{
  "0": [
    "lava",
    "iron",
    "gold",
    "pigiron",
    "cobalt",
    "ardite",
    "manyullyn",
    "knightslime",
    "alubrass",
    "brass",
    "copper",
    "tin",
    "bronze",
    "zinc",
    "lead",
    "nickel",
    "silver",
    "electrum",
    "steel",
    "aluminum",
    "uranium",
    "constantan",
    "steam",
    "stone",
    "obsidian",
    "clay",
    "dirt",
    "emerald",
    "glass",
    "milk",
    "blueslime",
    "purpleslime"
  ]
}