## Enchantment IDs                                   ##
#######################################################
## In the form:                                      ##
## <enchantment name>                                ##
##    - Id: <enchantment id>                         ##
##    - Rarity: <enchantment rarity (weight)>        ##
##    - Is Treasure: <can only get through treasure> ##
##    - Min Level: <min xp level for enchantment>    ##
##    - Max Level: <max xp level for enchantment>    ##
#######################################################
minecraft:protection
   - Id: 0
   - Rarity: COMMON
   - Treasure: false
   - Min Level: 1
   - Max Level: 4


minecraft:fire_protection
   - Id: 1
   - Rarity: UNCOMMON
   - Treasure: false
   - Min Level: 1
   - Max Level: 4


minecraft:feather_falling
   - Id: 2
   - Rarity: UNCOMMON
   - Treasure: false
   - Min Level: 1
   - Max Level: 4


minecraft:blast_protection
   - Id: 3
   - Rarity: RARE
   - Treasure: false
   - Min Level: 1
   - Max Level: 4


minecraft:projectile_protection
   - Id: 4
   - Rarity: UNCOMMON
   - Treasure: false
   - Min Level: 1
   - Max Level: 4


minecraft:respiration
   - Id: 5
   - Rarity: RARE
   - Treasure: false
   - Min Level: 1
   - Max Level: 3


minecraft:aqua_affinity
   - Id: 6
   - Rarity: RARE
   - Treasure: false
   - Min Level: 1
   - Max Level: 1


minecraft:thorns
   - Id: 7
   - Rarity: VERY_RARE
   - Treasure: false
   - Min Level: 1
   - Max Level: 3


minecraft:depth_strider
   - Id: 8
   - Rarity: RARE
   - Treasure: false
   - Min Level: 1
   - Max Level: 3


minecraft:frost_walker
   - Id: 9
   - Rarity: RARE
   - Treasure: true
   - Min Level: 1
   - Max Level: 2


minecraft:binding_curse
   - Id: 10
   - Rarity: VERY_RARE
   - Treasure: true
   - Min Level: 1
   - Max Level: 1


tombstone:shadow_step
   - Id: 11
   - Rarity: RARE
   - Treasure: false
   - Min Level: 1
   - Max Level: 5


tombstone:soulbound
   - Id: 12
   - Rarity: RARE
   - Treasure: false
   - Min Level: 1
   - Max Level: 1


tombstone:magic_siphon
   - Id: 13
   - Rarity: RARE
   - Treasure: false
   - Min Level: 1
   - Max Level: 5


exnihilocreatio:sieve_efficiency
   - Id: 14
   - Rarity: COMMON
   - Treasure: false
   - Min Level: 1
   - Max Level: 5


exnihilocreatio:sieve_fortune
   - Id: 15
   - Rarity: RARE
   - Treasure: false
   - Min Level: 1
   - Max Level: 3


minecraft:sharpness
   - Id: 16
   - Rarity: COMMON
   - Treasure: false
   - Min Level: 1
   - Max Level: 5


minecraft:smite
   - Id: 17
   - Rarity: UNCOMMON
   - Treasure: false
   - Min Level: 1
   - Max Level: 5


minecraft:bane_of_arthropods
   - Id: 18
   - Rarity: UNCOMMON
   - Treasure: false
   - Min Level: 1
   - Max Level: 5


minecraft:knockback
   - Id: 19
   - Rarity: UNCOMMON
   - Treasure: false
   - Min Level: 1
   - Max Level: 2


minecraft:fire_aspect
   - Id: 20
   - Rarity: RARE
   - Treasure: false
   - Min Level: 1
   - Max Level: 2


minecraft:looting
   - Id: 21
   - Rarity: RARE
   - Treasure: false
   - Min Level: 1
   - Max Level: 3


minecraft:sweeping
   - Id: 22
   - Rarity: RARE
   - Treasure: false
   - Min Level: 1
   - Max Level: 3


exnihilocreatio:sieve_luck_of_the_sea
   - Id: 23
   - Rarity: RARE
   - Treasure: false
   - Min Level: 1
   - Max Level: 3


minecraftfuture:channeling
   - Id: 24
   - Rarity: VERY_RARE
   - Treasure: false
   - Min Level: 1
   - Max Level: 1


minecraftfuture:impaling
   - Id: 25
   - Rarity: RARE
   - Treasure: false
   - Min Level: 1
   - Max Level: 5


minecraftfuture:loyalty
   - Id: 26
   - Rarity: UNCOMMON
   - Treasure: false
   - Min Level: 1
   - Max Level: 3


minecraftfuture:riptide
   - Id: 27
   - Rarity: RARE
   - Treasure: false
   - Min Level: 1
   - Max Level: 3


survivalist:scraping
   - Id: 28
   - Rarity: COMMON
   - Treasure: false
   - Min Level: 1
   - Max Level: 0


astralsorcery:enchantment.as.nightvision
   - Id: 29
   - Rarity: VERY_RARE
   - Treasure: false
   - Min Level: 1
   - Max Level: 1


astralsorcery:enchantment.as.smelting
   - Id: 30
   - Rarity: VERY_RARE
   - Treasure: false
   - Min Level: 1
   - Max Level: 1


minecraft:efficiency
   - Id: 32
   - Rarity: COMMON
   - Treasure: false
   - Min Level: 1
   - Max Level: 5


minecraft:silk_touch
   - Id: 33
   - Rarity: VERY_RARE
   - Treasure: false
   - Min Level: 1
   - Max Level: 1


minecraft:unbreaking
   - Id: 34
   - Rarity: UNCOMMON
   - Treasure: false
   - Min Level: 1
   - Max Level: 3


minecraft:fortune
   - Id: 35
   - Rarity: RARE
   - Treasure: false
   - Min Level: 1
   - Max Level: 3


minecraft:power
   - Id: 48
   - Rarity: COMMON
   - Treasure: false
   - Min Level: 1
   - Max Level: 5


minecraft:punch
   - Id: 49
   - Rarity: RARE
   - Treasure: false
   - Min Level: 1
   - Max Level: 2


minecraft:flame
   - Id: 50
   - Rarity: RARE
   - Treasure: false
   - Min Level: 1
   - Max Level: 1


minecraft:infinity
   - Id: 51
   - Rarity: VERY_RARE
   - Treasure: false
   - Min Level: 1
   - Max Level: 1


minecraft:luck_of_the_sea
   - Id: 61
   - Rarity: RARE
   - Treasure: false
   - Min Level: 1
   - Max Level: 3


minecraft:lure
   - Id: 62
   - Rarity: RARE
   - Treasure: false
   - Min Level: 1
   - Max Level: 3


minecraft:mending
   - Id: 70
   - Rarity: RARE
   - Treasure: true
   - Min Level: 1
   - Max Level: 1


minecraft:vanishing_curse
   - Id: 71
   - Rarity: VERY_RARE
   - Treasure: true
   - Min Level: 1
   - Max Level: 1


